     ___      __    __  .___________. __    __   _______ .__   __. .___________. __    ______     ___   .___________.  ______   .______
    /   \    |  |  |  | |           ||  |  |  | |   ____||  \ |  | |           ||  |  /      |   /   \  |           | /  __  \  |   _  \
   /  ^  \   |  |  |  | `---|  |----`|  |__|  | |  |__   |   \|  | `---|  |----`|  | |  ,----'  /  ^  \ `---|  |----`|  |  |  | |  |_)  |
  /  /_\  \  |  |  |  |     |  |     |   __   | |   __|  |  . `  |     |  |     |  | |  |      /  /_\  \    |  |     |  |  |  | |      /
 /  _____  \ |  `--'  |     |  |     |  |  |  | |  |____ |  |\   |     |  |     |  | |  `----./  _____  \   |  |     |  `--'  | |  |\  \----.
/__/     \__\ \______/      |__|     |__|  |__| |_______||__| \__|     |__|     |__|  \______/__/     \__\  |__|      \______/  | _| `._____|
